…
    ## `summarise()` has grouped output by 'peso_g'. You can override using the `.groups` argument.

    ## # A tibble: 2,283 x 4
    ## # Groups:   peso_g [1,471]
    ##    peso_g sexo_recode frequência porcentagem
    ##     <dbl> <chr>            <int>       <dbl>
    ##  1  14600 Fêmea                1     0.00201
    ##  2  12405 Fêmea                1     0.00201
    ##  3  11600 Fêmea                1     0.00201
    ##  4  11230 Fêmea                1     0.00201
    ##  5  10770 Fêmea                1     0.00201
    ##  6  10545 Fêmea                1     0.00201
    ##  7  10030 Fêmea                1     0.00201
    ##  8   9696 Fêmea                1     0.00201
    ##  9   9200 Fêmea                1     0.00201
    ## 10   9110 Fêmea                1     0.00201
    ## # ... with 2,273 more rows
…
``` r
cheque %>%
  select(rendimento_liquido)%>%
  arrange(desc(rendimento_liquido))
```

    ## # A tibble: 161,767 x 1
    ##    rendimento_liquido
    ##                 <dbl>
    ##  1           7267672.
    ##  2           2874516.
    ##  3            683094.
    ##  4            660934.
    ##  5            511424.
    ##  6            477756.
    ##  7            422214.
    ##  8            421106.
    ##  9            398141.
    ## 10            389054.
    ## # ... with 161,757 more rows
…
**(b)**

``` r
cheque %>%
  select(rendimento_liquido, tribunal) %>%
  group_by(tribunal) %>%
  summarise(
    media_rendimento = mean(rendimento_liquido, na.rm = TRUE),
    desvio = sd(rendimento_liquido, na.rm = TRUE),
    cv = (desvio/media_rendimento)*100) %>%
  arrange(desc(cv))
```

    ## # A tibble: 128 x 4
    ##    tribunal                                        media_rendimento desvio    cv
    ##    <chr>                                                      <dbl>  <dbl> <dbl>
    ##  1 Tribunal Regional do Trabalho da 7ª Região (CE)           54659. 3.89e5 713. 
    ##  2 Tribunal Regional do Trabalho da 5ª Região (BA)           40914. 9.82e4 240. 
    ##  3 Conselho Nacional de Justiça                               6333. 1.07e4 169. 
    ##  4 Tribunal Superior Eleitoral                                3738. 5.92e3 158. 
    ##  5 Tribunal Regional do Trabalho da 2ª Região (SP~           28545. 2.73e4  95.6
    ##  6 Tribunal Superior do Trabalho/ Conselho Superi~           75471. 7.04e4  93.3
    ##  7 Tribunal Regional do Trabalho da 12ª Região (S~           39566. 3.28e4  82.8
    ##  8 Tribunal Superior do Trabalho/Conselho Superio~            6450. 5.12e3  79.5
    ##  9 Tribunal Regional do Trabalho da 3ª Região                42668. 3.39e4  79.4
    ## 10 Tribunal Regional Eleitoral do Acre                       23039. 1.83e4  79.2
    ## # ... with 118 more rows
…
Quanto maior o Coeficiente de variação (cv) menor é a homogeneidade,
desta forma, o curso que possui uma menor homogeneidade na nota integral
ampla é o **Curso a Distância**

***Questão 8***

``` r
cursos_prouni%>%
  group_by(uf_busca)%>%
  count()%>%
  arrange(desc(n))
```

    ## # A tibble: 27 x 2
    ## # Groups:   uf_busca [27]
    ##    uf_busca     n
    ##    <chr>    <int>
    ##  1 SP       11533
    ##  2 MG        4175
    ##  3 PR        3918
    ##  4 RS        3060
    ##  5 BA        2505
    ##  6 SC        2195
    ##  7 RJ        1442
    ##  8 GO        1278
    ##  9 PA        1201
    ## 10 PE        1148
    ## # ... with 17 more rows

Segundo a tabela gerada pelo código acima, é possivel identificar que a
Bahia (BA) ocupa a quinta posição na frequencia absoluta da variável
uf\_busca disposta de forma decescente.

***Questão 9***

``` r
cursos_prouni%>%
  select(nome)%>%
  distinct()
```

    ## # A tibble: 296 x 1
    ##    nome                    
    ##    <chr>                   
    ##  1 Medicina                
    ##  2 Enfermagem              
    ##  3 Psicologia              
    ##  4 Engenharia de Computação
    ##  5 Educação Física         
    ##  6 Direito                 
    ##  7 Engenharia de Produção  
    ##  8 Fisioterapia            
    ##  9 Administração           
    ## 10 Engenharia Civil        
    ## # ... with 286 more rows
…
